…
# problem 2 - Visualization

``` r
data_2 = data %>%
  mutate(age_group = factor(age_group, levels = c(1,2,3,4,5,6,7,8), labels = c("1-17", "18-30", "31-40", "41-50", "51-60", "60+", "60+", "60+"))) %>%
  drop_na() %>%
  filter(!(age_group == "1-17")) %>%
  group_by(age_group, sex) 

p1 = ggplot(data_2, aes(x = fhp_size_mm,  fill = sex)) + geom_density(alpha = .6) + facet_grid(~age_group)
data_2
```

    ## # A tibble: 693 x 9
    ## # Groups:   age_group, sex [10]
    ##    sex     age age_group eop_size_mm eop_size eop_visibility_~ eop_shape
    ##    <fct> <dbl> <fct>           <dbl> <chr>               <dbl> <fct>    
    ##  1 male     18 18-30            14.8 2                       2 3        
    ##  2 male     26 18-30            17.1 3                       2 3        
    ##  3 male     20 18-30            23.9 4                       2 1        
    ##  4 fema~    28 18-30             7.9 1                       2 2        
    ##  5 male     21 18-30             9.4 1                       2 2        
    ##  6 male     30 18-30            16.5 3                       2 2        
    ##  7 male     27 18-30            22.8 4                       2 1        
    ##  8 male     30 18-30            17.8 3                       2 2        
    ##  9 male     21 18-30            12.2 2                       2 2        
    ## 10 male     23 18-30            11.2 2                       2 1        
    ## # ... with 683 more rows, and 2 more variables: fhp_size_mm <dbl>,
    ## #   fhp_category <chr>
…
